(CHAPITA)
M117
G49 G40 G80 G50 G61 G90
G54
G92.1
G21 
S1000
G17
M20
G4 P0.50      
G01 Z0 F25000
G52 X-133 Y0 Z-149
(POS_PINZA = 261)
G01 Y60 F20000
G52 X-133 Y0 Z-149
G52 X-133 
G01 Z122 F25000
G01 Y60 F20000
(posiciono la pinza: pos_pinza = 261 ,  pos_deseada = 860 )
(offset = 261 ,  desf_cero = 65 )
G01 Y60 F20000
(POS_PINZA = 860 , p_pos_pinza = -227)
G54
G92.1
G52 X0
(Muevo porque no hay espacio suficiente para la siguiente pinza)
(pos_sig_pinza = 338)
G01 X338 F10000
G52 Z-32
G01 Z-8 F25000
M21	
G4 P0.50      
G01 X-261 F20000
M20
G4 P0.50      
G01 Z5 F25000
G52 X-732 Y0 Z-149
G52 X-732 Y0 Z-54.70    
(Comienzo del programa chapita en el marco)
G52 X43 Y169 Z-44
M502
G01 X18 Y-19 F20000
M103
(comienza el mecanizado)
G01 Z0.2 F25000
G01 Z-1.50      F1000
(perimetro del cuello)
G01 X18 Y-21 F2500
G01 X-18
G01 G01 X-18 Y-19
G01 X18
(interior del cuello)
G01 Y-6
G01 X-18
G01 Y-21
(perimetro del cuerpo de la chapita)
G01 X28
G03 X28 Y-15 I0 J3 F500
G01 X-24 F2500
G03 X-24 Y-21 I0 J-3 F500
G01 X0 F2500
( 1er vaciado)
(Cajeado rectangular {maximo 28mm})
M105
G01 X9 Y-18 F20000
M103
G01 Z-5.50      F1000
G01 X-9 F2500
G01 Y-21
G01 X9
G01 Y-18
G01 Z-8 F1000
G01 X-9 F2500
G01 Y-21
G01 X9
G01 Y-18
M105
G01 Z5 F25000
M503
M105
G01 Z17 F25000
M189
G01 Y60 F20000
G54
G92.1
G52 X0
G01 Z0 F25000
M05
(la pieza sale por donde entro)
(posiciono la pinza: pos_pinza = 860 ,  pos_deseada = 261 )
(offset = 261 ,  desf_cero = 65 )
G01 Y60 F20000
(POS_PINZA = 261 , p_pos_pinza = 52)
G54
G92.1
G52 X0
G52 Z-32
G01 Z-8 F25000
M21	
G4 P0.50      
G01 X651 F20000
M20
G4 P0.50      
G01 Z5 F25000
G52 X-133 Y0 Z-149
G52 X-133 Y0 Z-54.70    
G54
G92.1
G52 X0
G01 X-237.30    F10000
G01 Z0 F25000
G01 X-261 F10000
M9
M21
M05
G54
G52 Z0
G01 Z0 F25000
G52 X0 Y0
G01 Y120 F20000
G01 X-261 f25000
G28.1 z0 F25000
G01 A0 F25000
G28.1 A0
G1 Y120 f30000
G1 Z-132 f15000
