G0 G49 G40 G80 G50 G61 G90
G54
G92.1
G21
G17
M05
M9
G1 A0 f20000 
G01 Y120 F15000
G01 X-258
(Posicion inicial de la pinza)
M20
G4 P0.50      
G01 Z0 F25000
G52 X-258 Y0 Z-129.50   
(POS_PINZA = 258)
M190
G54
G18
M110
(DESF_Y=-125)
(PERNIOS)
(muevo Y a la posicion previa palpado directamente)
G01 Y1040 F15000
G01 A0 F25000
G52 X-130 Y0 Z-164.50   
(mover a z segura)
G01 Z155.50     F25000
(PERNIO : 1 de 2)
(mover a z segura)
G01 Z155.50     F25000
G01 Y1040 F15000
G01 X3 F20000
(bisagra normal)
G52 X-127 Z-164.50   
G01 X-85 F15000
G01 Y1040 F15000
G01 Z55 F25000
G31 Y15 F500
G92 Y0
#2 = [#5212 - -21.60    ]
G92.1
(Fin Palpado Canto superior)
(Correccion de offset por palpado)
G52 X-127 Y[#2] Z-164.50   
(cuello de la bisagra)
G01 Y2 F15000
M03
G01 Z0 F2500
G01 X41 F15000
G01 Y-2.50      F1000
M103
G01 X41 Z13.50      F2500
G01 X41 Z0
G01 X33 F2500
G01 X33 Z13.50      F2500
(cuerpo de la bisagra)
G01 X7 F2500
G01 X93
M105
G52 X-130 Y0 Z-164.50   
G01 Y1055 F15000
M05
(PERNIO : 2 de 2)
(--------------- moverPinzaPos)
(posiciono la pinza: pos_pinza = 258 ,  pos_deseada = 117 )
(offset = 258 ,  desf_cero = 65 )
(POS_PINZA = 117 , p_pos_pinza = -34)
G54
G92.1
G52 X0 Y0
M21	
G4 P0.50      
(POS_PINZA = 117 , p_pos_pinza = -34 , ant_pos_pinza = 258 )
G01 X107 F15000
M20
G4 P0.50      
G52 X11 Y0 Z-129.50   
G52 X11 Y0 Z-14
(--------------- FIN moverPinzaPos)	
G01 X202 F20000
(bisagra normal)
G52 X213 Z-164.50   
G01 X-85 F15000
G01 Z55 F25000
G01 Y1040 F15000
G31 Y15 F500
G92 Y0
#2 = [#5212 - -21.60    ]
G92.1
(Fin Palpado Canto superior)
(Correccion de offset por palpado)
G52 X213 Y[#2] Z-164.50   
(cuello de la bisagra)
G01 Y2 F15000
M03
G01 Z0 F2500
G01 X41 F15000
G01 Y-2.50      F1000
M103
G01 X41 Z13.50      F2500
G01 X41 Z0
G01 X33 F2500
G01 X33 Z13.50      F2500
(cuerpo de la bisagra)
G01 X7 F2500
G01 X93
M105
G52 X11 Y0 Z-164.50   
G01 Y1055 F15000
M05
(mover a z segura)
G01 Z155.50     F25000
(fin pernios)
M189
(CERRADURA)
M117
G18
(DESF_Y=210)
(radio de la fresa = 6)	
G52 X11 Y0 Z-164.50   
(mover a z segura)
G01 Z155.50     F25000
G01 Y100 F15000
(--------------- moverPinzaPos)
(posiciono la pinza: pos_pinza = 117 ,  pos_deseada = 1350 )
(offset = 258 ,  desf_cero = 65 )
G52 Y0
G01 Y100 F15000
(POS_PINZA = 1055 , p_pos_pinza = 306)
G54
G92.1
G52 X0 Y0
(Muevo porque no hay espacio suficiente para la siguiente pinza)
(pos_sig_pinza = 680)
G01 X680 F20000
G52 Z-14
G01 Z-12 F25000
M21	
G4 P0.50      
(POS_PINZA = 1055 , p_pos_pinza = 680 , ant_pos_pinza = 117 )
G01 X-258 F15000
M20
G4 P0.50      
(mover a z segura)
G01 Z5 F25000
G52 X-927 Y0 Z-129.50   
G52 Y0
G01 Y100 F15000
(POS_PINZA = 1350 , p_pos_pinza = -258)
G54
G92.1
G52 X0 Y0
(Muevo porque no hay espacio suficiente para la siguiente pinza)
(pos_sig_pinza = 37)
G01 X37 F20000
G52 Z-14
G01 Z-12 F25000
M21	
G4 P0.50      
(POS_PINZA = 1350 , p_pos_pinza = 37 , ant_pos_pinza = 1055 )
G01 X-258 F15000
M20
G4 P0.50      
(mover a z segura)
G01 Z5 F25000
G52 X-1222 Y0 Z-129.50   
G52 X-1222 Y0 Z-14
(--------------- FIN moverPinzaPos)	
(POS_PINZA = 1350)
G52 X-257
G01 X0 F15000
(Bajo a Y para entrar)
G52 Y-210
G01 Y-2 F15000
G52 Z-129.50   
G01 Z0 F25000
(cdb=16 , esp_pta=35 , r_fresa_i=8, dcentro=0 )
(aux_z=17.50     )
G01 X18 Y-3 F15000
M03
G01 Z-17.50     F25000
G01 Y-1
(como el perimetro en el sentido antihorario {normal})
G01 X8 Y3 F2500
M103
G01 Z-17.50     F2500
G01 X230 F2500
G01 Z-17.50     F2500
G01 X8 F2500
G01 X8 F2500
M105
G01 Y-3 F15000
( Cajon cerraduras)
G52 X-224
G01 Z-17.50     F2500
G01 X0 Y3 F2500
M103
( hace rectangulos)
G01 Z-16.50     F2500
G01 Y6 F1000
G01 X175 F1500
G01 Z-18.50     F2500
G01 X0 F1500
( hace rectangulos)
G01 Z-16.50     F2500
G01 Y9 F1000
G01 X175 F1500
G01 Z-18.50     F2500
G01 X0 F1500
( hace rectangulos)
G01 Z-16.50     F2500
G01 Y12 F1000
G01 X175 F1500
G01 Z-18.50     F2500
G01 X0 F1500
( hace rectangulos)
G01 Z-16.50     F2500
G01 Y15 F1000
G01 X175 F1500
G01 Z-18.50     F2500
G01 X0 F1500
( hace rectangulos)
G01 Z-16.50     F2500
G01 Y18 F1000
G01 X175 F1500
G01 Z-18.50     F2500
G01 X0 F1500
( hace rectangulos)
G01 Z-16.50     F2500
G01 Y21 F1000
G01 X175 F1500
G01 Z-18.50     F2500
G01 X0 F1500
( hace rectangulos)
G01 Z-16.50     F2500
G01 Y24 F1000
G01 X175 F1500
G01 Z-18.50     F2500
G01 X0 F1500
( hace rectangulos)
G01 Z-16.50     F2500
G01 Y27 F1000
G01 X175 F1500
G01 Z-18.50     F2500
G01 X0 F1500
( hace rectangulos)
G01 Z-16.50     F2500
G01 Y30 F1000
G01 X175 F1500
G01 Z-18.50     F2500
G01 X0 F1500
( hace rectangulos)
G01 Z-16.50     F2500
G01 Y33 F1000
G01 X175 F1500
G01 Z-18.50     F2500
G01 X0 F1500
( hace rectangulos)
G01 Z-16.50     F2500
G01 Y36 F1000
G01 X175 F1500
G01 Z-18.50     F2500
G01 X0 F1500
( hace rectangulos)
G01 Z-16.50     F2500
G01 Y39 F1000
G01 X175 F1500
G01 Z-18.50     F2500
G01 X0 F1500
( hace rectangulos)
G01 Z-16.50     F2500
G01 Y42 F1000
G01 X175 F1500
G01 Z-18.50     F2500
G01 X0 F1500
( hace rectangulos)
G01 Z-16.50     F2500
G01 Y45 F1000
G01 X175 F1500
G01 Z-18.50     F2500
G01 X0 F1500
( hace rectangulos)
G01 Z-16.50     F2500
G01 Y48 F1000
G01 X175 F1500
G01 Z-18.50     F2500
G01 X0 F1500
( hace rectangulos)
G01 Z-16.50     F2500
G01 Y51 F1000
G01 X175 F1500
G01 Z-18.50     F2500
G01 X0 F1500
( hace rectangulos)
G01 Z-16.50     F2500
G01 Y54 F1000
G01 X175 F1500
G01 Z-18.50     F2500
G01 X0 F1500
( hace rectangulos)
G01 Z-16.50     F2500
G01 Y57 F1000
G01 X175 F1500
G01 Z-18.50     F2500
G01 X0 F1500
( hace rectangulos)
G01 Z-16.50     F2500
G01 Y60 F1000
G01 X175 F1500
G01 Z-18.50     F2500
G01 X0 F1500
( hace rectangulos)
G01 Z-16.50     F2500
G01 Y63 F1000
G01 X175 F1500
G01 Z-18.50     F2500
G01 X0 F1500
( hace rectangulos)
G01 Z-16.50     F2500
G01 Y66 F1000
G01 X175 F1500
G01 Z-18.50     F2500
G01 X0 F1500
( hace rectangulos)
G01 Z-16.50     F2500
G01 Y69 F1000
G01 X175 F1500
G01 Z-18.50     F2500
G01 X0 F1500
( hace rectangulos)
G01 Z-16.50     F2500
G01 Y72 F1000
G01 X175 F1500
G01 Z-18.50     F2500
G01 X0 F1500
( hace rectangulos)
G01 Z-16.50     F2500
G01 Y75 F1000
G01 X175 F1500
G01 Z-18.50     F2500
G01 X0 F1500
( hace rectangulos)
G01 Z-16.50     F2500
G01 Y78 F1000
G01 X175 F1500
G01 Z-18.50     F2500
G01 X0 F1500
( hace rectangulos)
G01 Z-16.50     F2500
G01 Y80 F1000
G01 X175 F1500
G01 Z-18.50     F2500
G01 X0 F1500
(Fin de la cerradura {voy a referenciar})
M105
G01 Y-3
G54
G52 Z0
G01 Z0 F25000
M05
G17
(DESF_X=-1)
(DESF_Y=-147)
(DESF_Z=-100)
(PESTILLO)	
M105
G54
G52 Z0
G01 Z0 F25000
M503
M105
(finalizo)
M105
G54
G92.1
G52 X0
G01 Z0 F25000
M05
(la pieza sale por donde entro)
(offset = 258)
(--------------- moverPinzaPos)
(posiciono la pinza: pos_pinza = 1350 ,  pos_deseada = 258 )
(offset = 258 ,  desf_cero = 65 )
G52 Y0
G01 Y100 F15000
(POS_PINZA = 412 , p_pos_pinza = -224)
G54
G92.1
G52 X0 Y0
G01 X-238 F20000
G52 Z-14
G01 Z-12 F25000
M21	
G4 P0.50      
(POS_PINZA = 412 , p_pos_pinza = -238 , ant_pos_pinza = 1350 )
G01 X700 F15000
M20
G4 P0.50      
(mover a z segura)
G01 Z5 F25000
G52 X-284 Y0 Z-129.50   
G52 Y0
G01 Y100 F15000
(POS_PINZA = 258 , p_pos_pinza = 700)
G54
G92.1
G52 X0 Y0
G01 X546 F20000
G52 Z-14
G01 Z-12 F25000
M21	
G4 P0.50      
(POS_PINZA = 258 , p_pos_pinza = 546 , ant_pos_pinza = 412 )
G01 X700 F15000
M20
G4 P0.50      
(mover a z segura)
G01 Z5 F25000
G52 X-130 Y0 Z-129.50   
G52 X-130 Y0 Z-14
(--------------- FIN moverPinzaPos)	
G54
G92.1
G52 X0
G01 X-258 F20000
G01 Z0 F25000
M9
M21
M05
G54
G52 Z0
G01 Z0 F25000
G52 X0 Y0
G01 Y120 F15000
G01 X-258 f25000
G28.1 z0 F25000
G01 A0 F25000
G28.1 A0
G1 Y120 f30000
G1 Z-132 f15000
