M117
G49 G40 G80 G50 G61 G90
G54
G92.1
G21 
S1000
G01 Z5 F3000
g59p13
G52 X0 Y0 Z-82
M03
G01 Y0 F15000
G01 X0
( ranuras)
( hago la varilla)
G52 X205 Y0
G01 X0 Y14.39      F15000
M103
G01 Z-5 F3000
G01 X10.97      Y24.61      F2500
M105
G01 Z2 F3000
M105
( Alojamiento de las espigas)
( ultima espiga)
G52 X123.06     Y19.50     
G01 X5 Y0 F15000
G01 Z1 F3000
M103
G01 Z-3 F1000
G01 X45 F2500
M105
G01 Z5
( espiga intermedias)
( 1er espiga)
G52 X140 Y19.50     
G01 X5 Y0 F15000
G01 Z1 F3000
M103
G01 Z-3 F1000
G01 X45 F2500
M105
G01 Z5
G54
G92.1
G01 Z5 F3000
M05
G52 X0 Y0
G01 X0 Y0  F15000
G28.1 X0 Y0
G28.1 Z5
