G0 G49 G40 G80 G50 G61 G90
G54
G92.1
G21
G17
M05
M9
G1 A0 f20000 
M20
G4 P0.50      
G01 X0 Y0 Z0 F25000
G54
G18
G01 X62 F2500
G01 Z13 F2500
G01 X11 F2500
G03 X7 Z17 I0 K4 F500
G01 Z17 F2500
G03 X11 Z21 I4 K0 F500
G01 X99 F2500
G03 X103 Z17 I0 K-4 F500
G01 Z17 F2500
G03 X99 Z13 I-4 K0 F500
G01 X62 F2500


